firstName,lastName,age,address_streetAddress,address_city,address_postalCode,phoneNumbers_0_type,phoneNumbers_0_number,phoneNumbers_1_type,phoneNumbers_1_number
firstName,lastName,age,address_streetAddress,address_city,address_postalCode,phoneNumbers_0_type,phoneNumbers_0_number,phoneNumbers_1_type,phoneNumbers_1_number
firstName,lastName,age,address_streetAddress,address_city,address_postalCode,phoneNumbers_0_type,phoneNumbers_0_number,phoneNumbers_1_type,phoneNumbers_1_number
